{
  "project_info": {
    "project_number": "840235728612",
    "firebase_url": "https://fyp-test-rapier909-default-rtdb.firebaseio.com",
    "project_id": "fyp-test-rapier909",
    "storage_bucket": "fyp-test-rapier909.appspot.com"
  },
  "client": [
    {
      "client_info": {
        "mobilesdk_app_id": "1:840235728612:android:87c80f91f72e80924f36f1",
        "android_client_info": {
          "package_name": "com.fyp.water_management"
        }
      },
      "oauth_client": [
        {
          "client_id": "840235728612-9ucedd5ta88k3nn550v38pl0ej6nrgeb.apps.googleusercontent.com",
          "client_type": 3
        }
      ],
      "api_key": [
        {
          "current_key": "AIzaSyCHhFyCw6GzDGcC4Sfi7RpIM_9A81NZnRg"
        }
      ],
      "services": {
        "appinvite_service": {
          "other_platform_oauth_client": [
            {
              "client_id": "840235728612-9ucedd5ta88k3nn550v38pl0ej6nrgeb.apps.googleusercontent.com",
              "client_type": 3
            }
          ]
        }
      }
    },
    {
      "client_info": {
        "mobilesdk_app_id": "1:840235728612:android:5d99ca216fc472b04f36f1",
        "android_client_info": {
          "package_name": "cpm.company.appname"
        }
      },
      "oauth_client": [
        {
          "client_id": "840235728612-9ucedd5ta88k3nn550v38pl0ej6nrgeb.apps.googleusercontent.com",
          "client_type": 3
        }
      ],
      "api_key": [
        {
          "current_key": "AIzaSyCHhFyCw6GzDGcC4Sfi7RpIM_9A81NZnRg"
        }
      ],
      "services": {
        "appinvite_service": {
          "other_platform_oauth_client": [
            {
              "client_id": "840235728612-9ucedd5ta88k3nn550v38pl0ej6nrgeb.apps.googleusercontent.com",
              "client_type": 3
            }
          ]
        }
      }
    }
  ],
  "configuration_version": "1"
}